Gordiyenko,Anna,FEMALE,2540,Java OOP
Ivanova,Anastasiya,FEMALE,2541,Java OOP
Klychko,Vitaliy,MALE,2531,Java OOP
Lomachenko,Oleksandr,MALE,2520,Java OOP
Lomachenko,Olena,FEMALE,2521,Java OOP
Safronov,Mykhaylo,MALE,2532,Java OOP
Zadorojnyi,Andriy,MALE,2522,Java OOP
Zelenskyi,Volodymyr,MALE,2530,Java OOP
